<svg width="1920" height="92" viewBox="0 0 1920 92" fill="none" xmlns="http://www.w3.org/2000/svg">
<path d="M0.5 0H1919.5C1709.17 28.3333 1223.2 86.2 962 91C700.8 95.8 212.167 32.3333 0.5 0Z" fill="white"/>
</svg>
