<svg width="114" height="43" viewBox="0 0 114 43" fill="none" xmlns="http://www.w3.org/2000/svg">
<path d="M91.4917 22.7454L94.5335 20.1478L89.3384 14.0642L86.2966 16.6617L91.4917 22.7454ZM4 19.7035C0.852556 22.1721 0.854148 22.1741 0.855872 22.1763C0.856621 22.1772 0.858481 22.1796 0.859983 22.1815C0.862988 22.1853 0.866523 22.1898 0.870586 22.1949C0.878713 22.2052 0.888954 22.2181 0.901302 22.2335C0.925997 22.2644 0.959125 22.3055 1.00062 22.3563C1.08361 22.458 1.20012 22.5986 1.34966 22.7742C1.64863 23.1252 2.08019 23.6166 2.64024 24.2157C3.75927 25.4129 5.39767 27.0474 7.52297 28.8556C11.7612 32.4615 18.0117 36.8231 26.0096 39.7424C42.3241 45.6975 65.049 45.3261 91.4917 22.7454L86.2966 16.6617C61.8968 37.498 42.1746 37.1266 28.7527 32.2274C21.8824 29.7197 16.4423 25.9406 12.707 22.7625C10.8456 21.1788 9.42646 19.7605 8.48468 18.7529C8.01433 18.2497 7.66466 17.8507 7.44 17.5869C7.32772 17.4551 7.24682 17.3572 7.19785 17.2972C7.17336 17.2672 7.15687 17.2467 7.14845 17.2362C7.14423 17.2309 7.14204 17.2281 7.14187 17.2279C7.14178 17.2278 7.1422 17.2284 7.14313 17.2295C7.1436 17.2301 7.14468 17.2315 7.14491 17.2318C7.14611 17.2333 7.14744 17.235 4 19.7035ZM72.5179 4C72.403 7.99835 72.4029 7.99835 72.4029 7.99835C72.4031 7.99835 72.4033 7.99836 72.4036 7.99837C72.4043 7.99839 72.4055 7.99842 72.4072 7.99847C72.4105 7.99857 72.4157 7.99872 72.4229 7.99893C72.4372 7.99936 72.4591 8.00001 72.4883 8.0009C72.5468 8.00268 72.6347 8.0054 72.7501 8.00913C72.9811 8.01657 73.3224 8.028 73.7595 8.04382C74.6339 8.07547 75.8908 8.12466 77.4141 8.19461C80.4639 8.33465 84.5668 8.55725 88.7993 8.88756C93.0477 9.21911 97.3544 9.65376 100.837 10.2093C102.584 10.4879 104.043 10.7845 105.15 11.0904C106.406 11.4376 106.726 11.6719 106.617 11.5873L111.54 5.2809C110.306 4.31805 108.64 3.75509 107.281 3.37954C105.773 2.96259 103.989 2.61095 102.097 2.30917C98.3032 1.70397 93.7509 1.24967 89.4217 0.911812C85.0766 0.572718 80.8832 0.345475 77.7811 0.203028C76.2284 0.131731 74.9454 0.0815078 74.0489 0.049059C73.6006 0.0328319 73.2487 0.0210421 73.0079 0.0132788C72.8874 0.00939696 72.7948 0.00652122 72.7316 0.00460032C72.7001 0.00363984 72.6759 0.00291802 72.6593 0.00242845C72.6511 0.00218367 72.6447 0.00199694 72.6402 0.00186746C72.638 0.00180272 72.6363 0.0017523 72.635 0.00171608C72.6344 0.00169798 72.6338 0.00168144 72.6335 0.00167241C72.6331 0.00165943 72.6327 0.00164999 72.5179 4ZM106.617 11.5873C106.116 11.1959 106.008 10.6841 106 10.5845C105.999 10.5687 106.006 10.6463 105.975 10.841C105.944 11.0325 105.883 11.2919 105.775 11.6236C105.314 13.0398 104.291 14.929 102.946 16.9812C101.639 18.9759 100.18 20.8962 99.0335 22.3337C98.4636 23.0478 97.9788 23.6327 97.639 24.036C97.4693 24.2374 97.3363 24.393 97.2475 24.4961C97.2031 24.5477 97.1698 24.5861 97.1485 24.6105C97.1379 24.6227 97.1303 24.6314 97.1259 24.6366C97.1236 24.6391 97.1222 24.6408 97.1215 24.6415C97.1212 24.6419 97.1211 24.642 97.1211 24.642C97.1212 24.6419 97.1214 24.6417 97.1214 24.6417C97.1217 24.6414 97.122 24.641 100.129 27.2789C103.136 29.9168 103.136 29.9164 103.137 29.9158C103.137 29.9156 103.137 29.915 103.138 29.9145C103.139 29.9135 103.14 29.9122 103.141 29.9107C103.144 29.9077 103.147 29.9038 103.151 29.899C103.16 29.8894 103.171 29.8761 103.186 29.8592C103.215 29.8254 103.257 29.7772 103.31 29.7156C103.416 29.5925 103.568 29.4152 103.757 29.1906C104.135 28.7416 104.666 28.1012 105.287 27.3232C106.521 25.7762 108.144 23.6439 109.637 21.3665C111.092 19.1466 112.587 16.5441 113.383 14.0976C113.779 12.8799 114.097 11.419 113.972 9.9203C113.838 8.30988 113.166 6.55053 111.54 5.2809L106.617 11.5873Z" fill="white"/>
</svg>
