<svg width="116" height="129" viewBox="0 0 116 129" fill="none" xmlns="http://www.w3.org/2000/svg">
<path d="M37.184 85.4553L33.3091 86.4476L31.3246 78.6976L35.1996 77.7054L37.184 85.4553ZM107.5 35C111.356 33.9381 111.358 33.9438 111.36 33.9496C111.36 33.9517 111.362 33.9576 111.363 33.9617C111.365 33.97 111.367 33.9788 111.37 33.9879C111.375 34.0063 111.38 34.0264 111.385 34.0482C111.396 34.0918 111.408 34.1423 111.421 34.1997C111.447 34.3143 111.476 34.4562 111.505 34.6241C111.563 34.9601 111.62 35.4007 111.652 35.9369C111.717 37.0116 111.678 38.4625 111.336 40.2139C110.647 43.7484 108.762 48.3203 104.326 53.3803C95.542 63.4009 76.7901 75.3139 37.184 85.4553L35.1996 77.7054C74.1862 67.7225 91.0884 56.3452 98.3102 48.1068C101.878 44.0373 103.083 40.7373 103.484 38.6824C103.688 37.6392 103.694 36.866 103.667 36.4152C103.653 36.1888 103.631 36.0414 103.62 35.9799C103.615 35.9492 103.613 35.94 103.616 35.9533C103.617 35.96 103.62 35.9723 103.625 35.9903C103.627 35.9994 103.63 36.0098 103.633 36.0217C103.634 36.0277 103.636 36.034 103.638 36.0407C103.639 36.044 103.64 36.0493 103.641 36.051C103.642 36.0564 103.644 36.0619 107.5 35ZM30.3595 54.5731C33.7652 56.671 33.7652 56.6709 33.7652 56.671C33.7651 56.6712 33.7649 56.6714 33.7647 56.6717C33.7643 56.6725 33.7635 56.6737 33.7625 56.6754C33.7604 56.6788 33.7571 56.6841 33.7526 56.6914C33.7437 56.7059 33.7301 56.728 33.712 56.7576C33.6757 56.8167 33.6213 56.9055 33.55 57.0222C33.4074 57.2557 33.1972 57.6007 32.9294 58.0433C32.3937 58.9286 31.6277 60.2035 30.7102 61.7556C28.8735 64.8628 26.4379 69.0677 24.0305 73.476C21.6151 77.8992 19.2652 82.46 17.5768 86.2965C16.7305 88.2195 16.0849 89.8832 15.6787 91.2119C15.2278 92.6869 15.2278 93.2673 15.2265 93.2549L7.27508 94.1356C7.08356 92.4064 7.53808 90.4766 8.02821 88.8732C8.56308 87.1235 9.345 85.1406 10.2545 83.074C12.0777 78.9313 14.5524 74.1408 17.0093 69.6418C19.4741 65.1281 21.9583 60.8399 23.8234 57.6848C24.7568 56.1057 25.5371 54.807 26.085 53.9016C26.359 53.4488 26.575 53.0941 26.7231 52.8517C26.7971 52.7305 26.8542 52.6374 26.893 52.574C26.9125 52.5424 26.9274 52.5181 26.9375 52.5016C26.9426 52.4933 26.9465 52.4869 26.9493 52.4825C26.9506 52.4803 26.9517 52.4786 26.9524 52.4774C26.9528 52.4767 26.9532 52.4762 26.9533 52.4759C26.9536 52.4754 26.9538 52.4751 30.3595 54.5731ZM15.2265 93.2549C15.1734 92.776 14.8906 92.5861 15.0237 92.6895C15.2224 92.844 15.7242 93.1251 16.6981 93.4115C18.6357 93.9812 21.4023 94.2805 24.4515 94.3735C27.4376 94.4645 30.4335 94.3524 32.7037 94.214C33.8332 94.1452 34.7706 94.0707 35.4215 94.0138C35.7467 93.9854 35.9998 93.9614 36.1688 93.9448C36.2533 93.9366 36.3167 93.9301 36.3576 93.9259C36.3781 93.9238 36.3929 93.9223 36.4018 93.9213C36.4063 93.9209 36.4094 93.9205 36.4109 93.9204C36.4117 93.9203 36.4121 93.9203 36.4121 93.9203C36.4121 93.9202 36.4119 93.9203 36.4119 93.9203C36.4115 93.9203 36.4111 93.9204 36.838 97.8975C37.265 101.875 37.2643 101.875 37.2636 101.875C37.2632 101.875 37.2624 101.875 37.2617 101.875C37.2602 101.875 37.2583 101.875 37.2561 101.876C37.2516 101.876 37.2457 101.877 37.2382 101.877C37.2233 101.879 37.2025 101.881 37.176 101.884C37.1229 101.889 37.0468 101.897 36.9493 101.907C36.7542 101.926 36.4731 101.952 36.118 101.983C35.4083 102.045 34.4001 102.125 33.1903 102.199C30.7816 102.346 27.5234 102.471 24.2077 102.37C20.9552 102.271 17.3725 101.948 14.4412 101.087C12.9806 100.657 11.4181 100.02 10.1135 99.0054C8.74333 97.9402 7.51828 96.3313 7.27508 94.1356L15.2265 93.2549Z" fill="white"/>
</svg>
