<svg width="146" height="124" viewBox="0 0 146 124" fill="none" xmlns="http://www.w3.org/2000/svg">
<path d="M106.254 70.2963L109.832 72.0852L106.254 79.2406L102.676 77.4517L106.254 70.2963ZM123.255 97.8402L122.552 93.9025L123.255 97.8402ZM24.5 23.5C24.0405 27.4735 24.0433 27.4739 24.0461 27.4742C24.0468 27.4743 24.0495 27.4746 24.0511 27.4747C24.0542 27.4751 24.0571 27.4754 24.0595 27.4757C24.0644 27.4762 24.068 27.4766 24.0703 27.4768C24.0748 27.4773 24.0744 27.4772 24.0694 27.4768C24.0592 27.4759 24.0327 27.4736 23.994 27.4714C23.9117 27.4667 23.8017 27.4636 23.6907 27.4676C23.2548 27.4832 23.5499 27.5654 24.0782 27.2329C24.4629 26.9908 25.0543 26.4619 25.3256 25.5596C25.5859 24.6942 25.3811 24.047 25.3128 23.8726C25.2452 23.7003 25.4444 24.2329 27.0213 25.6404C30.0019 28.301 36.3469 32.7552 48.8313 39.9694C61.2472 47.144 79.5415 56.94 106.254 70.2963L102.676 77.4517C75.8889 64.058 57.4376 54.1823 44.8287 46.8961C32.2884 39.6496 25.3296 34.854 21.6939 31.6086C19.9626 30.0631 18.5255 28.4786 17.8644 26.7918C17.4993 25.8602 17.2584 24.6063 17.6645 23.2557C18.0818 21.8682 19.0011 20.9757 19.8171 20.4621C21.2081 19.5867 22.7793 19.4951 23.4039 19.4727C23.8231 19.4577 24.1895 19.4695 24.4509 19.4845C24.5841 19.4921 24.6963 19.5009 24.7819 19.5086C24.8249 19.5124 24.8615 19.516 24.8912 19.5191C24.9061 19.5206 24.9193 19.522 24.9307 19.5232C24.9363 19.5239 24.9416 19.5245 24.9464 19.525C24.9488 19.5253 24.9521 19.5256 24.9532 19.5258C24.9564 19.5261 24.9594 19.5265 24.5 23.5ZM88.7622 99.9363L122.552 93.9025L123.958 101.778L90.1685 107.812L88.7622 99.9363ZM124.841 89.9176L114.709 62.2495L122.221 59.4985L132.353 87.1667L124.841 89.9176ZM122.552 93.9025C124.388 93.5746 125.483 91.6688 124.841 89.9176L132.353 87.1667C134.705 93.5879 130.69 100.576 123.958 101.778L122.552 93.9025Z" fill="white"/>
</svg>
