<svg width="100" height="105" viewBox="0 0 100 105" fill="none" xmlns="http://www.w3.org/2000/svg">
<path d="M49.3357 66.6646L48.6712 70.609L40.7823 69.2799L41.4469 65.3355L49.3357 66.6646ZM45.3914 5.5C45.589 1.50488 45.6007 1.50548 45.6124 1.50611C45.6164 1.50634 45.6283 1.50702 45.6362 1.5075C45.6522 1.50848 45.6684 1.50957 45.6849 1.51077C45.7178 1.51317 45.7515 1.51604 45.7862 1.51941C45.8555 1.52615 45.9281 1.53493 46.004 1.54612C46.1559 1.56854 46.3198 1.60055 46.4938 1.64507C46.8438 1.73462 47.225 1.87227 47.6228 2.0751C48.4304 2.48682 49.2177 3.121 49.9329 4.01251C51.3214 5.74324 52.4389 8.43594 53.1283 12.596C54.5045 20.9006 54.4067 36.5656 49.3357 66.6646L41.4469 65.3355C46.4846 35.4343 46.3869 20.8494 45.2359 13.9039C44.6617 10.439 43.8838 9.25675 43.6929 9.01873C43.6184 8.92587 43.6949 9.05224 43.9891 9.20224C44.1303 9.27421 44.3041 9.34253 44.511 9.39545C44.6135 9.42167 44.7218 9.44355 44.8361 9.46041C44.8931 9.46883 44.9515 9.47597 45.0111 9.48177C45.0409 9.48468 45.0711 9.48724 45.1015 9.48947C45.1167 9.49058 45.132 9.49161 45.1474 9.49255C45.1551 9.49301 45.1667 9.49369 45.1705 9.4939C45.1821 9.49452 45.1938 9.49512 45.3914 5.5ZM27.3638 66C30.2286 63.2084 30.229 63.2088 30.2295 63.2093C30.2297 63.2096 30.2302 63.2101 30.2307 63.2106C30.2317 63.2116 30.233 63.2129 30.2345 63.2145C30.2376 63.2177 30.2418 63.222 30.247 63.2274C30.2575 63.2382 30.2723 63.2534 30.2912 63.273C30.329 63.3121 30.3835 63.3686 30.4534 63.4415C30.5933 63.5873 30.7952 63.7992 31.0504 64.0702C31.5606 64.612 32.2848 65.3913 33.1518 66.3531C34.8819 68.2726 37.199 70.9389 39.5257 73.9074C41.8403 76.8604 44.2298 80.195 46.0595 83.4429C47.8039 86.5394 49.3913 90.1534 49.3913 93.5L41.3913 93.5C41.3913 92.3466 40.7252 90.2731 39.0895 87.3696C37.5391 84.6175 35.4217 81.6396 33.2294 78.8426C31.0492 76.0611 28.8594 73.5399 27.2095 71.7094C26.3864 70.7962 25.7021 70.0599 25.2264 69.5548C24.9887 69.3024 24.8034 69.108 24.6792 68.9785C24.6171 68.9137 24.5703 68.8652 24.5399 68.8338C24.5247 68.818 24.5136 68.8066 24.5067 68.7995C24.5033 68.796 24.5009 68.7936 24.4997 68.7923C24.499 68.7916 24.4986 68.7912 24.4985 68.7911C24.4985 68.7911 24.4986 68.7912 24.4986 68.7912C24.4988 68.7913 24.499 68.7916 27.3638 66ZM49.3913 93.5C49.3913 93.688 49.4609 92.7957 48.6164 91.9115C47.5791 90.8255 46.3322 90.9016 45.9975 90.9582C45.7194 91.0051 45.7311 91.0655 46.1321 90.8353C46.4797 90.6357 46.9559 90.3133 47.5638 89.8411C50.0565 87.9048 53.5645 84.402 57.2597 80.4084C60.9045 76.4692 64.5632 72.2376 67.3199 68.9791C68.6959 67.3525 69.8422 65.9743 70.6434 65.0039C71.044 64.5188 71.3581 64.1359 71.5713 63.8752C71.6779 63.7449 71.7593 63.6451 71.8136 63.5784C71.8408 63.5451 71.8612 63.52 71.8746 63.5035C71.8813 63.4953 71.8862 63.4892 71.8894 63.4852C71.891 63.4833 71.8922 63.4819 71.8929 63.481C71.8932 63.4806 71.8934 63.4803 71.8936 63.4801C71.8937 63.48 71.8936 63.4801 75.0001 66C78.1065 68.5199 78.1062 68.5203 78.1058 68.5207C78.1056 68.5211 78.1051 68.5217 78.1045 68.5223C78.1034 68.5237 78.1019 68.5256 78.0999 68.5281C78.0959 68.533 78.0901 68.5401 78.0826 68.5493C78.0676 68.5679 78.0455 68.595 78.0166 68.6304C77.9589 68.7013 77.874 68.8054 77.7638 68.9402C77.5433 69.2098 77.2212 69.6023 76.8122 70.0977C75.9942 71.0882 74.8273 72.4912 73.4275 74.1459C70.6325 77.4499 66.889 81.7808 63.1317 85.8416C59.4247 89.8479 55.5305 93.7827 52.4715 96.1589C51.6916 96.7648 50.8955 97.3252 50.1154 97.7731C49.3887 98.1903 48.4173 98.6628 47.3296 98.8465C46.1853 99.0397 44.3022 98.9772 42.8312 97.4371C41.553 96.0988 41.3913 94.437 41.3913 93.5L49.3913 93.5Z" fill="white"/>
</svg>
